\relax 
\catcode`"\active
\select@language{portuguese}
\@writefile{toc}{\select@language{portuguese}}
\@writefile{lof}{\select@language{portuguese}}
\@writefile{lot}{\select@language{portuguese}}
\@writefile{toc}{\contentsline {chapter}{Agradecimentos}{iii}}
\@writefile{toc}{\contentsline {chapter}{Abstract}{v}}
\@writefile{toc}{\contentsline {chapter}{Resumo}{vii}}
\@writefile{toc}{\contentsline {chapter}{Conte\IeC {\'u}do}{ix}}
\citation{disruptiveanalysis}
\citation{WebRTCSite}
\citation{rtcdatachannel}
\citation{websockethtml5v2}
\citation{jingleRFC}
\citation{jingleoverwebsocketRFC}
\citation{vertxarch}
\citation{webrtc2sip}
\citation{webrtc2sip}
\citation{webrtc2sip}
\citation{Teste1}
\citation{Teste1}
\citation{Teste2}
\citation{Teste2}
\citation{Teste2}
\citation{Teste2}
\@writefile{toc}{\contentsline {chapter}{Lista de Figuras}{xv}}
\citation{html5Webrtc}
\citation{w3schbrowserstat}
\citation{webrtc2sip}
\citation{adapterwebrtc}
\citation{w3schbrowserstat}
\@writefile{toc}{\contentsline {chapter}{Lista de Tabelas}{xix}}
\@writefile{toc}{\contentsline {chapter}{Lista de Acr\IeC {\'o}nimos}{xxi}}
\citation{w3history}
\citation{w3proposal}
\citation{w3history}
\@writefile{toc}{\contentsline {chapter}{\numberline {1}Introdu\IeC {\c c}\IeC {\~a}o }{1}}
\@writefile{lof}{\addvspace {10\p@ }}
\@writefile{lot}{\addvspace {10\p@ }}
\newlabel{cha:Introduction}{{1}{1}}
\citation{disruptiveanalysis}
\citation{article1}
\@writefile{lof}{\contentsline {figure}{\numberline {1.1}{\ignorespaces Estimativa da evolu\IeC {\c c}\IeC {\~a}o da tecnologia \textit  {WebRTC} \cite  {disruptiveanalysis}.}}{2}}
\newlabel{fig:webrtcevolution}{{1.1}{2}}
\newlabel{sec:MotObj}{{1.1}{2}}
\@writefile{toc}{\contentsline {section}{\numberline {1.1}Motiva\IeC {\c c}\IeC {\~a}o e objetivos }{2}}
\@writefile{lof}{\contentsline {figure}{\numberline {1.2}{\ignorespaces Exemplo de motiva\IeC {\c c}\IeC {\~a}o.}}{3}}
\newlabel{fig:motivation}{{1.2}{3}}
\citation{crc13}
\@writefile{toc}{\contentsline {section}{\numberline {1.2}Principais contribui\IeC {\c c}\IeC {\~o}es}{4}}
\@writefile{toc}{\contentsline {section}{\numberline {1.3}Organiza\IeC {\c c}\IeC {\~a}o da disserta\IeC {\c c}\IeC {\~a}o}{5}}
\citation{WebRTCSite}
\citation{WebRTCSite}
\@writefile{toc}{\contentsline {chapter}{\numberline {2}Conceitos Introdut\IeC {\'o}rios  }{7}}
\@writefile{lof}{\addvspace {10\p@ }}
\@writefile{lot}{\addvspace {10\p@ }}
\newlabel{cha:Chap2}{{2}{7}}
\@writefile{toc}{\contentsline {section}{\numberline {2.1}\textit  {WebRTC}}{7}}
\citation{webrtcCode}
\citation{html5Webrtc}
\citation{johnston2012webrtc}
\@writefile{lof}{\contentsline {figure}{\numberline {2.1}{\ignorespaces Arquitetura \textit  {WebRTC} \cite  {WebRTCSite}.}}{8}}
\newlabel{fig:webrtc_arch_apis}{{2.1}{8}}
\@writefile{toc}{\contentsline {subsection}{\numberline {2.1.1}WebRTC C++ API}{8}}
\citation{html5Webrtc}
\citation{johnston2012webrtc}
\citation{w3cWebRTC}
\citation{html5Webrtc}
\citation{johnston2012webrtc}
\citation{w3cWebRTC}
\citation{html5Webrtc}
\citation{johnston2012webrtc}
\citation{w3cWebRTC}
\@writefile{toc}{\contentsline {subsection}{\numberline {2.1.2}\textit  {WebRTC API}}{9}}
\@writefile{toc}{\contentsline {subsubsection}{\textit  {PeerConnection}}{9}}
\@writefile{toc}{\contentsline {subsubsection}{\textit  {Media Streams}}{9}}
\citation{html5Webrtc}
\citation{w3schbrowserstat}
\@writefile{toc}{\contentsline {subsubsection}{\textit  {RTC Data Channels}}{10}}
\@writefile{toc}{\contentsline {section}{\numberline {2.2}Compatibilidade}{10}}
\@writefile{lot}{\contentsline {table}{\numberline {2.1}{\ignorespaces Vers\IeC {\~o}es dos \textit  {web browsers} de suporte \IeC {\`a}s \textit  {APIs WebRTC} \cite  {html5Webrtc}.}}{10}}
\newlabel{table:browserswebrtcsupport}{{2.1}{10}}
\citation{rtcdatachannel}
\citation{rtcdatachannel}
\citation{SCTPRFC}
\citation{SCTPRFC}
\@writefile{lot}{\contentsline {table}{\numberline {2.2}{\ignorespaces Percentagem dos \textit  {web browsers} usados \cite  {w3schbrowserstat}.}}{11}}
\newlabel{table:percbrowsersusage}{{2.2}{11}}
\@writefile{toc}{\contentsline {section}{\numberline {2.3}Protocolos \textit  {data channel}}{11}}
\@writefile{lof}{\contentsline {figure}{\numberline {2.2}{\ignorespaces Pilha \textit  {Data Channel} \cite  {rtcdatachannel}.}}{11}}
\newlabel{fig:stackdatachannel}{{2.2}{11}}
\citation{DTLSRFC}
\citation{DTLSRFC}
\citation{UDPRFC}
\@writefile{toc}{\contentsline {subsection}{\numberline {2.3.1}\textit  {Stream Control Transmission Protocol (SCTP)}}{12}}
\@writefile{toc}{\contentsline {subsection}{\numberline {2.3.2}\textit  {Datagram Transport Layer Security (DTLS)}}{12}}
\@writefile{toc}{\contentsline {subsection}{\numberline {2.3.3}\textit  {User Datagram Protocol (UDP)}}{12}}
\citation{RTPRFC}
\citation{RTPRFC}
\citation{DTLSSRTPRFC}
\citation{DTLSSRTPRFC}
\citation{SDP1}
\citation{SDP1}
\@writefile{toc}{\contentsline {subsection}{\numberline {2.3.4}\textit  {Secure Real-Time Protocol - Datagram Transport Layer Security}}{13}}
\@writefile{toc}{\contentsline {subsection}{\numberline {2.3.5}\textit  {Session Description Protocol (SDP)}}{13}}
\citation{html5Webrtc}
\citation{w3cWebRTC}
\citation{html5Webrtc}
\citation{w3cWebRTC}
\citation{WEBSOCKETRFC}
\citation{websockethtml5}
\citation{WEBSOCKETRFC}
\citation{websockethtml5}
\citation{websockethtml5v2}
\@writefile{toc}{\contentsline {section}{\numberline {2.4}\textit  {WebSockets}}{14}}
\newlabel{sec:websocket}{{2.4}{14}}
\@writefile{lof}{\contentsline {figure}{\numberline {2.3}{\ignorespaces Compara\IeC {\c c}\IeC {\~a}o de lat\IeC {\^e}ncia entre \textit  {polling} e aplica\IeC {\c c}\IeC {\~o}es \textit  {Websockets} \cite  {websockethtml5v2}.}}{15}}
\newlabel{fig:compar_websocket_poll}{{2.3}{15}}
\@writefile{toc}{\contentsline {section}{\numberline {2.5}Sinaliza\IeC {\c c}\IeC {\~a}o}{15}}
\@writefile{toc}{\contentsline {subsection}{\numberline {2.5.1}\textit  {SIP over WebSockets}}{15}}
\citation{WebsocketDRAFT}
\citation{jingleRFC}
\citation{jingleRFC}
\citation{jingleoverwebsocketRFC}
\citation{jingleoverwebsocketRFC}
\@writefile{toc}{\contentsline {subsection}{\numberline {2.5.2}\textit  {Jingle over WebSockets}}{16}}
\citation{jingleoverwebsocketRFC}
\@writefile{lof}{\contentsline {figure}{\numberline {2.4}{\ignorespaces Processo \textit  {Jingle} \cite  {jingleRFC}.}}{17}}
\newlabel{fig:jingle}{{2.4}{17}}
\@writefile{toc}{\contentsline {subsection}{\numberline {2.5.3}\textit  {JavaScript Session Establishment Protocol (JSEP)}}{17}}
\@writefile{lof}{\contentsline {figure}{\numberline {2.5}{\ignorespaces Modelo \textit  {JSEP} \cite  {jingleoverwebsocketRFC}.}}{17}}
\newlabel{fig:jingle}{{2.5}{17}}
\citation{ICERFC}
\citation{STUNRFC}
\@writefile{toc}{\contentsline {section}{\numberline {2.6}\textit  {Network Address Translation (NAT)}}{18}}
\@writefile{toc}{\contentsline {subsection}{\numberline {2.6.1}\textit  {Interactive Connectivity Establishment (ICE)}}{18}}
\@writefile{toc}{\contentsline {subsection}{\numberline {2.6.2}\textit  {Session Traversal Utilities for NAT (STUN)}}{18}}
\citation{TURNRFC}
\citation{webrtccodec}
\@writefile{toc}{\contentsline {subsection}{\numberline {2.6.3}\textit  {Traversal Using Relays around NAT (TURN)}}{19}}
\@writefile{toc}{\contentsline {section}{\numberline {2.7}\textit  {Codecs}}{19}}
\citation{webrtc2sip}
\@writefile{lot}{\contentsline {table}{\numberline {2.3}{\ignorespaces Tabela de suporte \textit  {codecs} nos diferentes \textit  {web browsers} \cite  {webrtc2sip}.}}{20}}
\newlabel{table:codecandbrowsers}{{2.3}{20}}
\@writefile{toc}{\contentsline {section}{\numberline {2.8}Sum\IeC {\'a}rio}{20}}
\citation{peercdn}
\citation{peercdn}
\@writefile{toc}{\contentsline {chapter}{\numberline {3}Solu\IeC {\c c}\IeC {\~o}es \textit  {WebRTC}  }{21}}
\@writefile{lof}{\addvspace {10\p@ }}
\@writefile{lot}{\addvspace {10\p@ }}
\newlabel{cha:Chap3}{{3}{21}}
\@writefile{toc}{\contentsline {section}{\numberline {3.1}Solu\IeC {\c c}\IeC {\~o}es existentes}{21}}
\@writefile{toc}{\contentsline {subsection}{\numberline {3.1.1}\textit  {PeerCDN}}{21}}
\citation{talkio}
\citation{talkio}
\citation{bananabread}
\citation{responsivewebrtc}
\citation{responsivewebrtc}
\@writefile{toc}{\contentsline {subsection}{\numberline {3.1.2}\textit  {Conversat.io}}{22}}
\@writefile{toc}{\contentsline {subsection}{\numberline {3.1.3}\textit  {BananaBread}}{22}}
\@writefile{toc}{\contentsline {subsection}{\numberline {3.1.4}\textit  {Responsive Web Typography with WebRTC}}{22}}
\citation{SIPML5}
\citation{SIPML5}
\citation{webrtc2sip}
\@writefile{toc}{\contentsline {subsection}{\numberline {3.1.5}\textit  {SIPML5}}{23}}
\@writefile{toc}{\contentsline {section}{\numberline {3.2}Bibliotecas \textit  {JavaScript}}{23}}
\newlabel{sec:librariesJavaScript}{{3.2}{23}}
\citation{webrtcexperiment}
\citation{webrtcexperimentrtcmulti}
\citation{webrtcexperimentrtcmulti}
\citation{webrtcexperimentdatachannel}
\@writefile{toc}{\contentsline {subsection}{\numberline {3.2.1}\textit  {WebRTC Experiment}}{24}}
\newlabel{sec:webrtcExperiment}{{3.2.1}{24}}
\@writefile{toc}{\contentsline {subsubsection}{\textit  {RCMultiConnection.js}}{24}}
\citation{webrtcexperimentrecordrtc}
\citation{webrtcexperimentrtcall}
\@writefile{toc}{\contentsline {subsubsection}{\textit  {DataChannel.js}}{25}}
\@writefile{toc}{\contentsline {subsubsection}{\textit  {RecordRTC.js}}{25}}
\@writefile{toc}{\contentsline {subsubsection}{\textit  {RTCCall.js}}{25}}
\citation{simplewebrtc}
\citation{simplewebrtc}
\citation{adapterwebrtc}
\@writefile{toc}{\contentsline {subsection}{\numberline {3.2.2}\textit  {SimpleWebRTC}}{26}}
\@writefile{toc}{\contentsline {subsection}{\numberline {3.2.3}\textit  {Adapter.js}}{26}}
\@writefile{lot}{\contentsline {table}{\numberline {3.1}{\ignorespaces Perfixos das interfaces nos diferentes \textit  {browsers} \cite  {adapterwebrtc}.}}{26}}
\newlabel{table:interfacesbrowsers}{{3.1}{26}}
\citation{nodejs}
\citation{nodejs}
\citation{npmjs}
\citation{npmjs}
\@writefile{toc}{\contentsline {section}{\numberline {3.3}WebSockets}{27}}
\@writefile{toc}{\contentsline {subsection}{\numberline {3.3.1}\textit  {Node.js}}{27}}
\citation{vertxdoc}
\citation{vertx}
\citation{vertxarch}
\citation{vertxdoc}
\@writefile{toc}{\contentsline {subsection}{\numberline {3.3.2}\textit  {Vert.x}}{28}}
\@writefile{lof}{\contentsline {figure}{\numberline {3.1}{\ignorespaces Funcionamento geral da aplica\IeC {\c c}\IeC {\~a}o Vert.x \cite  {vertxarch}.}}{29}}
\newlabel{fig:applicationvertx}{{3.1}{29}}
\citation{appengine}
\citation{appengine}
\@writefile{toc}{\contentsline {subsection}{\numberline {3.3.3}\textit  {Google App Engine}}{30}}
\@writefile{toc}{\contentsline {section}{\numberline {3.4}\textit  {Gateways} para \textit  {SIP}}{30}}
\citation{Asterisk}
\citation{AsteriskWebRTC}
\citation{AsteriskWebRTC}
\@writefile{toc}{\contentsline {subsection}{\numberline {3.4.1}\textit  {Asterisk}}{31}}
\@writefile{toc}{\contentsline {subsection}{\numberline {3.4.2}\textit  {WebRTC2SIP (sipML5)}}{31}}
\citation{webrtc2sip}
\citation{webrtc2sip}
\citation{webrtc2sip}
\@writefile{lof}{\contentsline {figure}{\numberline {3.2}{\ignorespaces Arquitetura \textit  {SipML5} \cite  {webrtc2sip}.}}{32}}
\newlabel{fig:sipml5architecture}{{3.2}{32}}
\@writefile{lof}{\contentsline {figure}{\numberline {3.3}{\ignorespaces RTCWeb Breaker SipML5 \cite  {webrtc2sip}.}}{32}}
\newlabel{fig:sipml5rtcwebbreaker}{{3.3}{32}}
\@writefile{lof}{\contentsline {figure}{\numberline {3.4}{\ignorespaces \textit  {Media Coder SipML5} \cite  {webrtc2sip}.}}{32}}
\newlabel{fig:sipml5mediacoder}{{3.4}{32}}
\@writefile{toc}{\contentsline {section}{\numberline {3.5}Experimenta\IeC {\c c}\IeC {\~a}o e sele\IeC {\c c}\IeC {\~a}o de solu\IeC {\c c}\IeC {\~o}es existentes}{33}}
\@writefile{lof}{\contentsline {figure}{\numberline {3.5}{\ignorespaces Esquema de intera\IeC {\c c}\IeC {\~a}o de tecnologias.}}{33}}
\newlabel{fig:generalArch}{{3.5}{33}}
\@writefile{toc}{\contentsline {subsection}{\numberline {3.5.1}\textit  {Vert.x vs Node.js}}{33}}
\citation{Teste1}
\citation{Teste1}
\@writefile{toc}{\contentsline {subsubsection}{\textit  {Vert.x vs node.js simple HTTP benchmarks}}{34}}
\@writefile{lof}{\contentsline {figure}{\numberline {3.6}{\ignorespaces Resultados do teste de respostas 200-OK \cite  {Teste1}.}}{34}}
\newlabel{fig:testhttpvertx}{{3.6}{34}}
\citation{Teste1}
\citation{Teste2}
\citation{Teste2}
\citation{Teste2}
\citation{Teste2}
\@writefile{lof}{\contentsline {figure}{\numberline {3.7}{\ignorespaces Resultados do teste de ficheiro 72bytes \cite  {Teste1}.}}{35}}
\newlabel{fig:testhttpvertx}{{3.7}{35}}
\@writefile{toc}{\contentsline {subsubsection}{Compara\IeC {\c c}\IeC {\~a}o de \textit  {server side websockets} utilizando \textit  {atmosphere}, \textit  {netty}, \textit  {node.js} e \textit  {vert.x}}{35}}
\citation{Teste2}
\citation{Teste2}
\citation{Teste2}
\citation{Teste2}
\citation{Teste2}
\citation{Teste2}
\@writefile{lof}{\contentsline {figure}{\numberline {3.8}{\ignorespaces Mensagens recebidas - \textit  {node.js} \cite  {Teste2}.}}{36}}
\newlabel{subfig:nodejsmsgreceiv}{{3.8}{36}}
\@writefile{lof}{\contentsline {figure}{\numberline {3.9}{\ignorespaces Mensagens recebidas por segundo - \textit  {node.js} \cite  {Teste2}.}}{36}}
\newlabel{subfig:nodejsmsgreceivforsec}{{3.9}{36}}
\@writefile{lof}{\contentsline {figure}{\numberline {3.10}{\ignorespaces Mensagens recebidas - \textit  {vert.x} \cite  {Teste2}.}}{36}}
\newlabel{subfig:vertxmsgreceiv}{{3.10}{36}}
\@writefile{lof}{\contentsline {figure}{\numberline {3.11}{\ignorespaces Mensagens recebidas por segundo - \textit  {vert.x} \cite  {Teste2}.}}{36}}
\newlabel{subfig:vertxmsgreceivforsec}{{3.11}{36}}
\citation{webrtcexperimentrecordrtc}
\citation{webrtcexperimentrtcmulti}
\citation{webrtcexperimentdatachannel}
\citation{webrtcexperimentrtcall}
\@writefile{toc}{\contentsline {subsection}{\numberline {3.5.2}Bibliotecas \textit  {JavaScript WebRTC}}{37}}
\@writefile{toc}{\contentsline {subsubsection}{\textit  {WebRTC Experiment vs SimpleWebRTC}}{37}}
\citation{simplewebrtc}
\@writefile{toc}{\contentsline {subsubsection}{Base de dados}{38}}
\@writefile{toc}{\contentsline {subsubsection}{Linguagens de Programa\IeC {\c c}\IeC {\~a}o}{38}}
\@writefile{toc}{\contentsline {section}{\numberline {3.6}Sum\IeC {\'a}rio}{39}}
\@writefile{toc}{\contentsline {chapter}{\numberline {4} \textit  {Framework Webrtc}  }{41}}
\@writefile{lof}{\addvspace {10\p@ }}
\@writefile{lot}{\addvspace {10\p@ }}
\newlabel{cha:Chap4}{{4}{41}}
\@writefile{toc}{\contentsline {section}{\numberline {4.1}Requisitos funcionais}{41}}
\@writefile{toc}{\contentsline {subsection}{\numberline {4.1.1}Chamada com controlo de estabelecimento de chamada}{41}}
\@writefile{toc}{\contentsline {subsection}{\numberline {4.1.2}Chamada b\IeC {\'a}sica com controlo completo da chamada}{42}}
\@writefile{toc}{\contentsline {subsection}{\numberline {4.1.3}Chamada com pessoas externas}{42}}
\@writefile{toc}{\contentsline {subsection}{\numberline {4.1.4}Presen\IeC {\c c}a e Lista de contactos}{42}}
\@writefile{toc}{\contentsline {subsection}{\numberline {4.1.5}Chat / Mensagens Instant\IeC {\^a}neas}{43}}
\@writefile{toc}{\contentsline {subsection}{\numberline {4.1.6}Partilha de Ficheiros}{43}}
\@writefile{toc}{\contentsline {subsection}{\numberline {4.1.7}Grava\IeC {\c c}\IeC {\~a}o de Voz e V\IeC {\'\i }deo}{44}}
\@writefile{toc}{\contentsline {section}{\numberline {4.2}Arquitetura da \textit  {Framework}}{44}}
\@writefile{toc}{\contentsline {subsection}{\numberline {4.2.1}Especifica\IeC {\c c}\IeC {\~o}es Iniciais}{44}}
\@writefile{lof}{\contentsline {figure}{\numberline {4.1}{\ignorespaces Especifica\IeC {\c c}\IeC {\~a}o inicial dos m\IeC {\'o}dulos.}}{44}}
\newlabel{fig:modulesspec}{{4.1}{44}}
\@writefile{lof}{\contentsline {figure}{\numberline {4.2}{\ignorespaces Especifica\IeC {\c c}\IeC {\~a}o da intera\IeC {\c c}\IeC {\~a}o entre m\IeC {\'o}dulos.}}{45}}
\newlabel{fig:interactmodules}{{4.2}{45}}
\@writefile{lof}{\contentsline {figure}{\numberline {4.3}{\ignorespaces Especifica\IeC {\c c}\IeC {\~a}o da intera\IeC {\c c}\IeC {\~a}o dos clientes com m\IeC {\'o}dulo base de dados.}}{46}}
\newlabel{fig:interactmodulesbd}{{4.3}{46}}
\@writefile{toc}{\contentsline {subsection}{\numberline {4.2.2}Estrutura arquitetural}{46}}
\@writefile{lof}{\contentsline {figure}{\numberline {4.4}{\ignorespaces Arquitetura do sistema.}}{47}}
\newlabel{fig:systemarchi}{{4.4}{47}}
\@writefile{toc}{\contentsline {section}{\numberline {4.3}Descri\IeC {\c c}\IeC {\~a}o dos M\IeC {\'o}dulos}{47}}
\@writefile{toc}{\contentsline {subsection}{\numberline {4.3.1}M\IeC {\'o}dulo servidor \textit  {web}}{47}}
\@writefile{toc}{\contentsline {subsection}{\numberline {4.3.2}M\IeC {\'o}dulo de base de dados}{48}}
\@writefile{toc}{\contentsline {subsection}{\numberline {4.3.3}M\IeC {\'o}dulo de gest\IeC {\~a}o de autentica\IeC {\c c}\IeC {\~o}es e autoriza\IeC {\c c}\IeC {\~o}es}{49}}
\@writefile{toc}{\contentsline {subsection}{\numberline {4.3.4}M\IeC {\'o}dulo de gest\IeC {\~a}o de sess\IeC {\~o}es}{50}}
\@writefile{toc}{\contentsline {subsection}{\numberline {4.3.5}M\IeC {\'o}dulo de registo utilizador}{51}}
\@writefile{toc}{\contentsline {subsection}{\numberline {4.3.6}M\IeC {\'o}dulo de pesquisa e intersec\IeC {\c c}\IeC {\~a}o de servi\IeC {\c c}os}{52}}
\@writefile{toc}{\contentsline {subsection}{\numberline {4.3.7}M\IeC {\'o}dulo de gest\IeC {\~a}o de utilizadores}{52}}
\@writefile{toc}{\contentsline {subsection}{\numberline {4.3.8}M\IeC {\'o}dulo de presen\IeC {\c c}a}{53}}
\@writefile{toc}{\contentsline {subsection}{\numberline {4.3.9}M\IeC {\'o}dulo de hist\IeC {\'o}rico de chamadas}{53}}
\@writefile{toc}{\contentsline {subsection}{\numberline {4.3.10}Sinaliza\IeC {\c c}\IeC {\~a}o}{54}}
\@writefile{toc}{\contentsline {section}{\numberline {4.4}Mensagens}{54}}
\newlabel{subsec:messages}{{4.4}{54}}
\@writefile{toc}{\contentsline {subsection}{\numberline {4.4.1}Registo de cliente}{54}}
\@writefile{lof}{\contentsline {figure}{\numberline {4.5}{\ignorespaces Formul\IeC {\'a}rio de registo no sistema.}}{55}}
\newlabel{fig:systemregister}{{4.5}{55}}
\@writefile{lof}{\contentsline {figure}{\numberline {4.6}{\ignorespaces Mensagem de registo no sistema.}}{55}}
\newlabel{fig:systemmsgregister}{{4.6}{55}}
\@writefile{lof}{\contentsline {figure}{\numberline {4.7}{\ignorespaces Mensagem para gravar grupo de utilizador.}}{56}}
\newlabel{fig:systemgroupprofsave}{{4.7}{56}}
\@writefile{lof}{\contentsline {figure}{\numberline {4.8}{\ignorespaces Gravar servi\IeC {\c c}os subscritos por um utilizador.}}{57}}
\newlabel{fig:saveuserservicesmsg}{{4.8}{57}}
\@writefile{toc}{\contentsline {subsection}{\numberline {4.4.2}Autentica\IeC {\c c}\IeC {\~a}o de Cliente}{57}}
\@writefile{lof}{\contentsline {figure}{\numberline {4.9}{\ignorespaces Autentica\IeC {\c c}\IeC {\~a}o de um utilizador no sistema.}}{57}}
\newlabel{fig:loginofauser}{{4.9}{57}}
\@writefile{lof}{\contentsline {figure}{\numberline {4.10}{\ignorespaces Iniciar sess\IeC {\~a}o para um utilizador.}}{58}}
\newlabel{fig:startusersession}{{4.10}{58}}
\@writefile{lof}{\contentsline {figure}{\numberline {4.11}{\ignorespaces Guardar informa\IeC {\c c}\IeC {\~a}o do utilizador na sess\IeC {\~a}o associada.}}{58}}
\newlabel{fig:saveinfoinsession}{{4.11}{58}}
\@writefile{lof}{\contentsline {figure}{\numberline {4.12}{\ignorespaces Mensagem de verifica\IeC {\c c}\IeC {\~a}o de servi\IeC {\c c}os de um utilizador.}}{59}}
\newlabel{fig:msgservicesverifuser}{{4.12}{59}}
\@writefile{lof}{\contentsline {figure}{\numberline {4.13}{\ignorespaces \textit  {Array} de servi\IeC {\c c}os em resposta do servidor.}}{59}}
\newlabel{fig:msgarrayserverresponse}{{4.13}{59}}
\@writefile{toc}{\contentsline {subsection}{\numberline {4.4.3}M\IeC {\'o}dulo de presen\IeC {\c c}a e Intera\IeC {\c c}\IeC {\~a}o no sistema}{60}}
\@writefile{lof}{\contentsline {figure}{\numberline {4.14}{\ignorespaces Mensagem para obter os estados de presen\IeC {\c c}a do sistema.}}{61}}
\newlabel{fig:statepresencesgetsystem}{{4.14}{61}}
\@writefile{lof}{\contentsline {figure}{\numberline {4.15}{\ignorespaces Mensagem para notificar e obter lista de contactos.}}{62}}
\newlabel{fig:notificareencontraramigos}{{4.15}{62}}
\@writefile{lof}{\contentsline {figure}{\numberline {4.16}{\ignorespaces Notifica\IeC {\c c}\IeC {\~a}o de mudan\IeC {\c c}a de estado.}}{62}}
\newlabel{fig:notifychangestate}{{4.16}{62}}
\@writefile{lof}{\contentsline {figure}{\numberline {4.17}{\ignorespaces Mensagem para adicionar contacto.}}{63}}
\newlabel{fig:msgaddfriend}{{4.17}{63}}
\@writefile{toc}{\contentsline {subsection}{\numberline {4.4.4}M\IeC {\'o}dulo de gest\IeC {\~a}o de utilizadores}{63}}
\@writefile{lof}{\contentsline {figure}{\numberline {4.18}{\ignorespaces Mensagem para pesquisa de utilizadores do sistema.}}{64}}
\newlabel{fig:msgsearchfriend}{{4.18}{64}}
\@writefile{toc}{\contentsline {section}{\numberline {4.5}Confer\IeC {\^e}ncias \IeC {\'a}udio e v\IeC {\'\i }deo}{64}}
\@writefile{lof}{\contentsline {figure}{\numberline {4.19}{\ignorespaces Convidar pessoas para uma sess\IeC {\~a}o.}}{65}}
\newlabel{fig:invitepersonscall}{{4.19}{65}}
\@writefile{lof}{\contentsline {figure}{\numberline {4.20}{\ignorespaces Mensagem de notifica\IeC {\c c}\IeC {\~a}o para in\IeC {\'\i }cio de sess\IeC {\~a}o.}}{65}}
\newlabel{fig:notifyinitsession}{{4.20}{65}}
\@writefile{lof}{\contentsline {figure}{\numberline {4.21}{\ignorespaces Notifica\IeC {\c c}\IeC {\~a}o para in\IeC {\'\i }cio de sess\IeC {\~a}o.}}{66}}
\newlabel{fig:notifyinitsessionpopup}{{4.21}{66}}
\@writefile{lof}{\contentsline {figure}{\numberline {4.22}{\ignorespaces Confer\IeC {\^e}ncia entre tr\IeC {\^e}s pessoas.}}{66}}
\newlabel{fig:conferunning}{{4.22}{66}}
\citation{UUIDRFC}
\@writefile{lof}{\contentsline {figure}{\numberline {4.23}{\ignorespaces Registo de chamada no hist\IeC {\'o}rico de chamadas.}}{68}}
\newlabel{fig:historycall}{{4.23}{68}}
\@writefile{toc}{\contentsline {section}{\numberline {4.6}Sum\IeC {\'a}rio}{68}}
\@writefile{toc}{\contentsline {chapter}{\numberline {5}Cen\IeC {\'a}rios de teste e resultados obtidos  }{71}}
\@writefile{lof}{\addvspace {10\p@ }}
\@writefile{lot}{\addvspace {10\p@ }}
\newlabel{cha:Chap5}{{5}{71}}
\@writefile{toc}{\contentsline {section}{\numberline {5.1}Testes de valida\IeC {\c c}\IeC {\~a}o}{71}}
\citation{w3schbrowserstat}
\@writefile{toc}{\contentsline {section}{\numberline {5.2}Testes de desempenho computacional}{72}}
\@writefile{lot}{\contentsline {table}{\numberline {5.1}{\ignorespaces Percentagem dos \textit  {web browsers} usados \cite  {w3schbrowserstat}.}}{72}}
\newlabel{table:sumCenarios}{{5.1}{72}}
\@writefile{lof}{\contentsline {figure}{\numberline {5.1}{\ignorespaces \textit  {Ping} ao servidor com VPN.}}{73}}
\newlabel{fig:pingVPN}{{5.1}{73}}
\@writefile{lof}{\contentsline {figure}{\numberline {5.2}{\ignorespaces \textit  {Ping} ao servidor na rede dom\IeC {\'e}stica.}}{74}}
\newlabel{fig:pingsemVPN}{{5.2}{74}}
\@writefile{toc}{\contentsline {subsection}{\numberline {5.2.1}Cen\IeC {\'a}rio 1 - Rede empresarial}{74}}
\@writefile{lof}{\contentsline {figure}{\numberline {5.3}{\ignorespaces Cen\IeC {\'a}rio 1 e Teste 1.}}{75}}
\newlabel{fig:cenario11teste}{{5.3}{75}}
\@writefile{lof}{\contentsline {figure}{\numberline {5.4}{\ignorespaces Gr\IeC {\'a}fico de utiliza\IeC {\c c}\IeC {\~a}o de mem\IeC {\'o}ria numa chamada.}}{75}}
\newlabel{fig:memoriateste1}{{5.4}{75}}
\@writefile{lof}{\contentsline {figure}{\numberline {5.5}{\ignorespaces Cen\IeC {\'a}rio 1 e Teste 2.}}{76}}
\newlabel{fig:cen12teste}{{5.5}{76}}
\@writefile{lof}{\contentsline {figure}{\numberline {5.6}{\ignorespaces Utiliza\IeC {\c c}\IeC {\~a}o de \textit  {CPU} no inicio da confer\IeC {\^e}ncia.}}{76}}
\newlabel{subfig:CPUcenari12}{{5.6}{76}}
\@writefile{lof}{\contentsline {figure}{\numberline {5.7}{\ignorespaces Utiliza\IeC {\c c}\IeC {\~a}o de \textit  {CPU} ao finalizar confer\IeC {\^e}ncia.}}{76}}
\newlabel{subfig:CPUcenari12v2}{{5.7}{76}}
\@writefile{lof}{\contentsline {figure}{\numberline {5.8}{\ignorespaces Comportamento da utiliza\IeC {\c c}\IeC {\~a}o de \textit  {CPU}.}}{76}}
\newlabel{CPUcenario1test2}{{5.8}{76}}
\@writefile{lof}{\contentsline {figure}{\numberline {5.9}{\ignorespaces Utiliza\IeC {\c c}\IeC {\~a}o de mem\IeC {\'o}ria ao iniciar a confer\IeC {\^e}ncia.}}{76}}
\newlabel{fig:conferencia5gradual2}{{5.9}{76}}
\@writefile{lof}{\contentsline {figure}{\numberline {5.10}{\ignorespaces Utiliza\IeC {\c c}\IeC {\~a}o de mem\IeC {\'o}ria ao finalizar confer\IeC {\^e}ncia.}}{77}}
\newlabel{fig:desligarconferencia}{{5.10}{77}}
\@writefile{lot}{\contentsline {table}{\numberline {5.2}{\ignorespaces Utiliza\IeC {\c c}\IeC {\~a}o do CPU no servidor durante alguns eventos entre cliente e servidor.}}{77}}
\newlabel{table:CPUusagenoconf}{{5.2}{77}}
\@writefile{lot}{\contentsline {table}{\numberline {5.3}{\ignorespaces Utiliza\IeC {\c c}\IeC {\~a}o de CPU no servidor durante uma confer\IeC {\^e}ncia de 4 pessoas.}}{78}}
\newlabel{table:CPUusageconf}{{5.3}{78}}
\@writefile{toc}{\contentsline {subsection}{\numberline {5.2.2}Cen\IeC {\'a}rio 2 - Rede dom\IeC {\'e}stica}{78}}
\@writefile{lof}{\contentsline {figure}{\numberline {5.11}{\ignorespaces Cen\IeC {\'a}rio 2 e teste 1.}}{79}}
\newlabel{fig:cenario21teste}{{5.11}{79}}
\@writefile{lof}{\contentsline {figure}{\numberline {5.12}{\ignorespaces Resultados de \textit  {CPU} no computador com menor poder computacional.}}{79}}
\newlabel{fig:conferenciawindows2}{{5.12}{79}}
\@writefile{lof}{\contentsline {figure}{\numberline {5.13}{\ignorespaces Resultados de \textit  {CPU} PC4.}}{80}}
\newlabel{fig:conferenciamac}{{5.13}{80}}
\@writefile{lof}{\contentsline {figure}{\numberline {5.14}{\ignorespaces Cen\IeC {\'a}rio 2 e teste 2.}}{80}}
\newlabel{fig:cenario22teste}{{5.14}{80}}
\@writefile{toc}{\contentsline {section}{\numberline {5.3}Sum\IeC {\'a}rio}{80}}
\@writefile{toc}{\contentsline {chapter}{\numberline {6}Conclus\IeC {\~o}es e trabalho futuro}{83}}
\@writefile{lof}{\addvspace {10\p@ }}
\@writefile{lot}{\addvspace {10\p@ }}
\newlabel{cha:Conclusions}{{6}{83}}
\@writefile{toc}{\contentsline {section}{\numberline {6.1}Resumo do trabalho desenvolvido}{83}}
\citation{crc13}
\@writefile{toc}{\contentsline {section}{\numberline {6.2}Principais contribui\IeC {\c c}\IeC {\~o}es}{85}}
\@writefile{toc}{\contentsline {section}{\numberline {6.3}Trabalho futuro}{85}}
\@writefile{toc}{\contentsline {chapter}{\numberline {A}Anexo A - Mensagem SDP}{87}}
\@writefile{lof}{\addvspace {10\p@ }}
\@writefile{lot}{\addvspace {10\p@ }}
\newlabel{cap:anexa}{{A}{87}}
\@writefile{toc}{\contentsline {chapter}{\numberline {B}Anexo B}{91}}
\@writefile{lof}{\addvspace {10\p@ }}
\@writefile{lot}{\addvspace {10\p@ }}
\newlabel{cap:anexb}{{B}{91}}
\newlabel{RF1}{92}
\@writefile{lof}{\contentsline {figure}{\numberline {B.1}{\ignorespaces Funcionamento de sinaliza\IeC {\c c}\IeC {\~a}o WebRTC.}}{92}}
\newlabel{fig:sinWebrtc}{{B.1}{92}}
\@writefile{toc}{\contentsline {chapter}{\numberline {C}Anexo C}{93}}
\@writefile{lof}{\addvspace {10\p@ }}
\@writefile{lot}{\addvspace {10\p@ }}
\newlabel{cap:anexb}{{C}{93}}
\@writefile{toc}{\contentsline {section}{\numberline {C.1}Cen\IeC {\'a}rio 1}{93}}
\@writefile{toc}{\contentsline {section}{\numberline {C.2}Cen\IeC {\'a}rio 2}{94}}
\bibstyle{unsrt}
\bibdata{myrefs}
\bibcite{w3history}{1}
\bibcite{w3proposal}{2}
\bibcite{disruptiveanalysis}{3}
\bibcite{article1}{4}
\bibcite{crc13}{5}
\bibcite{WebRTCSite}{6}
\bibcite{webrtcCode}{7}
\bibcite{html5Webrtc}{8}
\bibcite{johnston2012webrtc}{9}
\bibcite{w3cWebRTC}{10}
\@writefile{toc}{\contentsline {chapter}{Bibliografia}{97}}
\bibcite{w3schbrowserstat}{11}
\bibcite{rtcdatachannel}{12}
\bibcite{SCTPRFC}{13}
\bibcite{DTLSRFC}{14}
\bibcite{UDPRFC}{15}
\bibcite{RTPRFC}{16}
\bibcite{DTLSSRTPRFC}{17}
\bibcite{SDP1}{18}
\bibcite{WEBSOCKETRFC}{19}
\bibcite{websockethtml5}{20}
\bibcite{websockethtml5v2}{21}
\bibcite{WebsocketDRAFT}{22}
\bibcite{jingleRFC}{23}
\bibcite{jingleoverwebsocketRFC}{24}
\bibcite{ICERFC}{25}
\bibcite{STUNRFC}{26}
\bibcite{TURNRFC}{27}
\bibcite{webrtccodec}{28}
\bibcite{webrtc2sip}{29}
\bibcite{peercdn}{30}
\bibcite{talkio}{31}
\bibcite{bananabread}{32}
\bibcite{responsivewebrtc}{33}
\bibcite{SIPML5}{34}
\bibcite{webrtcexperiment}{35}
\bibcite{webrtcexperimentrtcmulti}{36}
\bibcite{webrtcexperimentdatachannel}{37}
\bibcite{webrtcexperimentrecordrtc}{38}
\bibcite{webrtcexperimentrtcall}{39}
\bibcite{simplewebrtc}{40}
\bibcite{adapterwebrtc}{41}
\bibcite{nodejs}{42}
\bibcite{npmjs}{43}
\bibcite{vertxdoc}{44}
\bibcite{vertx}{45}
\bibcite{vertxarch}{46}
\bibcite{appengine}{47}
\bibcite{Asterisk}{48}
\bibcite{AsteriskWebRTC}{49}
\bibcite{Teste1}{50}
\bibcite{Teste2}{51}
\bibcite{UUIDRFC}{52}
\citation{*}
