Linux 2.6.32-358.2.1.el6.x86_64 (cte-dev-evl-webrtc) 	07/03/2013 	_x86_64_	(1 CPU)

02:28:58 PM     CPU     %user     %nice   %system   %iowait    %steal     %idle
02:29:58 PM     all      0.12      0.00      0.02      0.09      0.00     99.78
02:30:58 PM     all      0.14      0.00      0.03      0.10      0.00     99.73
02:31:58 PM     all      0.26      0.00      0.03      0.09      0.00     99.62
02:32:58 PM     all      0.14      0.00      0.02      0.17      0.00     99.68
Average:        all      0.16      0.00      0.03      0.11      0.00     99.70
